{
  "data": {
    "count": 154,
    "next": "https://hub.docker.com/v2/repositories/jessestuart/?page=2&page_size=25",
    "previous": null,
    "results": [
      {
        "user": "jessestuart",
        "name": "owntracks",
        "namespace": "jessestuart",
        "repository_type": "image",
        "status": 1,
        "description": "OwnTracks. Multiarch. \ud83d\udc4c",
        "is_private": false,
        "is_automated": true,
        "can_edit": false,
        "star_count": 3,
        "pull_count": 488928,
        "last_updated": "2019-07-26T00:25:53.188984Z",
        "is_migrated": true
      },
      {
        "user": "jessestuart",
        "name": "caddy",
        "namespace": "jessestuart",
        "repository_type": "image",
        "status": 1,
        "description": "The every(wo)man's reverse proxy, on all your boxes or boards. amd64, arm64, & armhf nightly builds.",
        "is_private": false,
        "is_automated": true,
        "can_edit": false,
        "star_count": 1,
        "pull_count": 363038,
        "last_updated": "2019-07-17T06:13:12.702257Z",
        "is_migrated": true
      },
      {
        "user": "jessestuart",
        "name": "tiller",
        "namespace": "jessestuart",
        "repository_type": "image",
        "status": 1,
        "description": "Nightly multi-architecture (amd64, arm64, armv7) builds for the Kubernetes Helm tiller service.",
        "is_private": false,
        "is_automated": true,
        "can_edit": false,
        "star_count": 10,
        "pull_count": 335171,
        "last_updated": "2019-07-26T00:26:23.660382Z",
        "is_migrated": true
      },
      {
        "user": "jessestuart",
        "name": "renovate",
        "namespace": "jessestuart",
        "repository_type": "image",
        "status": 1,
        "description": "All the dependencies, up-to-date, all the time. Nightly multiarch builds. (amd64 + arm64)",
        "is_private": false,
        "is_automated": false,
        "can_edit": false,
        "star_count": 0,
        "pull_count": 143411,
        "last_updated": "2019-07-26T00:26:00.434943Z",
        "is_migrated": false
      },
      {
        "user": "jessestuart",
        "name": "minio",
        "namespace": "jessestuart",
        "repository_type": "image",
        "status": 1,
        "description": "Minio server \u2014 supports arm (arm32v6, arm32v7, armhf) arm64 (aarch64), and amd64 architectures.",
        "is_private": false,
        "is_automated": false,
        "can_edit": false,
        "star_count": 3,
        "pull_count": 74836,
        "last_updated": "2019-07-26T00:25:28.724882Z",
        "is_migrated": false
      },
      {
        "user": "jessestuart",
        "name": "grafana",
        "namespace": "jessestuart",
        "repository_type": "image",
        "status": 1,
        "description": "An OSS metrics dashboard and graph editor for Graphite, Elasticsearch, Prometheus and InfluxDB.",
        "is_private": false,
        "is_automated": true,
        "can_edit": false,
        "star_count": 1,
        "pull_count": 52749,
        "last_updated": "2019-07-26T00:25:46.783163Z",
        "is_migrated": true
      },
      {
        "user": "jessestuart",
        "name": "mc",
        "namespace": "jessestuart",
        "repository_type": "image",
        "status": 1,
        "description": "amd64, arm64, and armhf Docker images for Minio Client.",
        "is_private": false,
        "is_automated": true,
        "can_edit": false,
        "star_count": 0,
        "pull_count": 45199,
        "last_updated": "2019-07-26T00:25:01.207276Z",
        "is_migrated": true
      },
      {
        "user": "jessestuart",
        "name": "fluent-bit",
        "namespace": "jessestuart",
        "repository_type": "image",
        "status": 1,
        "description": "Multiarch (ARM, ARM64, AMD64) fluent-bit image. Nightly builds from master. Telemetry FTW.",
        "is_private": false,
        "is_automated": false,
        "can_edit": false,
        "star_count": 3,
        "pull_count": 38773,
        "last_updated": "2019-03-29T00:56:24.662030Z",
        "is_migrated": false
      },
      {
        "user": "jessestuart",
        "name": "unifi_exporter",
        "namespace": "jessestuart",
        "repository_type": "image",
        "status": 1,
        "description": "Multi-arch (AMD, ARM, ARM64) image for scraping data from a Unifi controller.",
        "is_private": false,
        "is_automated": false,
        "can_edit": false,
        "star_count": 0,
        "pull_count": 37153,
        "last_updated": "2019-04-24T09:19:43.460889Z",
        "is_migrated": false
      },
      {
        "user": "jessestuart",
        "name": "velero",
        "namespace": "jessestuart",
        "repository_type": "image",
        "status": 1,
        "description": "Nightly multiarch (arm64, armhf, amd64) builds of Heptio Velero for Kubernetes.",
        "is_private": false,
        "is_automated": false,
        "can_edit": false,
        "star_count": 1,
        "pull_count": 36522,
        "last_updated": "2019-07-26T00:25:27.980053Z",
        "is_migrated": false
      },
      {
        "user": "jessestuart",
        "name": "ark",
        "namespace": "jessestuart",
        "repository_type": "image",
        "status": 1,
        "description": "Nightly multiarch (arm64, armhf, amd64) builds of Heptio's ark.",
        "is_private": false,
        "is_automated": true,
        "can_edit": false,
        "star_count": 2,
        "pull_count": 23236,
        "last_updated": "2019-02-05T00:20:24.394623Z",
        "is_migrated": true
      },
      {
        "user": "jessestuart",
        "name": "kube-local-volume-provisioner",
        "namespace": "jessestuart",
        "repository_type": "image",
        "status": 1,
        "description": "A local PV represents a local disk directly-attached to a Node. This reached GA in 1.14.",
        "is_private": false,
        "is_automated": false,
        "can_edit": false,
        "star_count": 1,
        "pull_count": 17476,
        "last_updated": "2018-06-17T23:56:56.873702Z",
        "is_migrated": false
      },
      {
        "user": "jessestuart",
        "name": "kube2iam",
        "namespace": "jessestuart",
        "repository_type": "image",
        "status": 1,
        "description": "kube2iam provides different AWS IAM roles for pods running on Kubernetes. \nNightly multiarch builds.",
        "is_private": false,
        "is_automated": false,
        "can_edit": false,
        "star_count": 0,
        "pull_count": 11239,
        "last_updated": "2019-07-26T00:26:11.724272Z",
        "is_migrated": false
      },
      {
        "user": "jessestuart",
        "name": "elasticsearch_exporter",
        "namespace": "jessestuart",
        "repository_type": "image",
        "status": 1,
        "description": "",
        "is_private": false,
        "is_automated": false,
        "can_edit": false,
        "star_count": 0,
        "pull_count": 10668,
        "last_updated": "2019-07-26T00:16:41.077609Z",
        "is_migrated": false
      },
      {
        "user": "jessestuart",
        "name": "docker-hub-exporter",
        "namespace": "jessestuart",
        "repository_type": "image",
        "status": 1,
        "description": "",
        "is_private": false,
        "is_automated": false,
        "can_edit": false,
        "star_count": 0,
        "pull_count": 8596,
        "last_updated": "2019-07-26T00:26:38.629018Z",
        "is_migrated": false
      },
      {
        "user": "jessestuart",
        "name": "consul",
        "namespace": "jessestuart",
        "repository_type": "image",
        "status": 1,
        "description": "",
        "is_private": false,
        "is_automated": false,
        "can_edit": false,
        "star_count": 0,
        "pull_count": 5189,
        "last_updated": "2018-06-27T10:58:33.747580Z",
        "is_migrated": false
      },
      {
        "user": "jessestuart",
        "name": "homemaker",
        "namespace": "jessestuart",
        "repository_type": "image",
        "status": 1,
        "description": "",
        "is_private": false,
        "is_automated": false,
        "can_edit": false,
        "star_count": 0,
        "pull_count": 4527,
        "last_updated": "2019-07-26T00:15:25.027394Z",
        "is_migrated": false
      },
      {
        "user": "jessestuart",
        "name": "lmsensors_exporter",
        "namespace": "jessestuart",
        "repository_type": "image",
        "status": 1,
        "description": "",
        "is_private": false,
        "is_automated": false,
        "can_edit": false,
        "star_count": 0,
        "pull_count": 3293,
        "last_updated": "2019-01-13T06:51:47.711712Z",
        "is_migrated": false
      },
      {
        "user": "jessestuart",
        "name": "pihole_exporter",
        "namespace": "jessestuart",
        "repository_type": "image",
        "status": 1,
        "description": "",
        "is_private": false,
        "is_automated": false,
        "can_edit": false,
        "star_count": 0,
        "pull_count": 3271,
        "last_updated": "2019-07-26T00:25:38.734157Z",
        "is_migrated": false
      },
      {
        "user": "jessestuart",
        "name": "prometheus-operator",
        "namespace": "jessestuart",
        "repository_type": "image",
        "status": 1,
        "description": "",
        "is_private": false,
        "is_automated": false,
        "can_edit": false,
        "star_count": 0,
        "pull_count": 3147,
        "last_updated": "2019-02-18T05:22:18.479499Z",
        "is_migrated": false
      },
      {
        "user": "jessestuart",
        "name": "fluent-bit-builder",
        "namespace": "jessestuart",
        "repository_type": "image",
        "status": 1,
        "description": "",
        "is_private": false,
        "is_automated": false,
        "can_edit": false,
        "star_count": 0,
        "pull_count": 2826,
        "last_updated": "2018-12-20T00:09:51.823687Z",
        "is_migrated": false
      },
      {
        "user": "jessestuart",
        "name": "caddy-cloudflare",
        "namespace": "jessestuart",
        "repository_type": "image",
        "status": 1,
        "description": "Caddy w/ Cloudflare plugin included. [NOTE: use jessestuart/caddy instead for nightly builds!] ",
        "is_private": false,
        "is_automated": true,
        "can_edit": false,
        "star_count": 0,
        "pull_count": 2824,
        "last_updated": "2018-05-13T00:09:24.732025Z",
        "is_migrated": true
      },
      {
        "user": "jessestuart",
        "name": "vagrant-build-base",
        "namespace": "jessestuart",
        "repository_type": "image",
        "status": 1,
        "description": "",
        "is_private": false,
        "is_automated": false,
        "can_edit": false,
        "star_count": 0,
        "pull_count": 2509,
        "last_updated": "2019-07-26T00:03:30.885302Z",
        "is_migrated": false
      },
      {
        "user": "jessestuart",
        "name": "prometheus-config-reloader",
        "namespace": "jessestuart",
        "repository_type": "image",
        "status": 1,
        "description": "",
        "is_private": false,
        "is_automated": false,
        "can_edit": false,
        "star_count": 0,
        "pull_count": 2063,
        "last_updated": "2019-02-18T05:22:29.570278Z",
        "is_migrated": false
      },
      {
        "user": "jessestuart",
        "name": "node_exporter",
        "namespace": "jessestuart",
        "repository_type": "image",
        "status": 1,
        "description": "",
        "is_private": false,
        "is_automated": false,
        "can_edit": false,
        "star_count": 0,
        "pull_count": 1852,
        "last_updated": "2019-02-20T08:50:20.501687Z",
        "is_migrated": false
      }
    ]
  }
}
