{
  "data": {
    "count": 154,
    "next": "https://hub.docker.com/v2/repositories/jessestuart/?page=2&page_size=25",
    "previous": null,
    "results": [
      {
        "user": "jessestuart",
        "name": "owntracks",
        "namespace": "jessestuart",
        "repository_type": "image",
        "status": 1,
        "description": "OwnTracks. Multiarch. \ud83d\udc4c",
        "is_private": false,
        "is_automated": true,
        "can_edit": false,
        "star_count": 3,
        "pull_count": 488928,
        "is_migrated": true
      }
    ]
  }
}
